Working with Fish and Stream Data in R
…
df_24k_attributes <- 
  whd_stream_atribs %>% 
  filter(hyd_cat == "stream") %>% 
  left_join(whd_ncm, by = "reachid") %>% 
  left_join(whd_watwersheds, by = "reachid") %>% 
  mutate(across(c(reachid), as.character)) 

# clean up R environment
rm(whd_ncm); rm(whd_stream_atribs); rm(whd_watwersheds)

# print it
df_24k_attributes

## # A tibble: 162,620 x 34
##    reachid hyd_cat c_huc12 gradient c_length wet_width stream_order nat_comm
##    <chr>   <chr>     <dbl>    <dbl>    <dbl>     <dbl>        <int> <chr>   
##  1 200000~ stream  7.09e10   2.03     1430.        0.8            1 Coldwat~
##  2 200000~ stream  7.09e10   0.349      44.9       2.6            2 Coldwat~
##  3 200000~ stream  7.09e10   0.349      26.5       2.6            2 Coldwat~
##  4 200000~ stream  7.09e10   1.68     1532.        0.8            1 Coldwat~
##  5 200000~ stream  7.09e10   0.349    2100.        2.4            2 Coldwat~
##  6 200000~ stream  7.09e10   0.567     968.        1.8            1 Cool-Co~
##  7 200000~ stream  7.09e10   0.0884   1926.        7.9            4 Cool-Wa~
##  8 200000~ stream  7.09e10   0.917    3248.        1.3            1 Cool-Co~
##  9 200000~ stream  7.09e10   1.19       39.8       1.8            1 Cool-Co~
## 10 200000~ stream  7.09e10   0.640     917.        0.8            1 Cool-Co~
## # ... with 162,610 more rows, and 26 more variables: temp_class <chr>,
## #   temp_summer_cl_cc <dbl>, temp_july_cl_cc <dbl>, temp_max_cl_cc <dbl>,
## #   spr_e10_c <dbl>, spr_e50_c <dbl>, spr_e90_c <dbl>, sum_e10_c <dbl>,
## #   sum_e50_c <dbl>, sum_e90_c <dbl>, fal_e10_c <dbl>, fal_e50_c <dbl>,
## #   fal_e90_c <dbl>, apr_e10_c <dbl>, apr_e50_c <dbl>, apr_e90_c <dbl>,
## #   aug_e10_c <dbl>, aug_e50_c <dbl>, aug_e90_c <dbl>, w_area <dbl>,
## #   w_perm <dbl>, w_darcy <dbl>, w_prcp_ann <dbl>, w_temp_ann <dbl>,
## #   w_temp_gs <dbl>, w_temp_july <dbl>
…
Now we need to link up our fish data with our stream and watershed attribute data. Fish survey sites, in addition to having their own distinct IDs in FMDB, each have a distinct SWIMS station IDs associated with them. In turn, SWIMS stations IDs are linked to hydroids in the 24K Hydro lines, which are in turn linked with reachids in the 24k attributed data.

So, we need a cross-walk table between swims_stations_id, hydroid, and reachid .

3.1. Xwalk table

I have compiled that crosswalk for you. Lets load it into R.

xwalk_ids <- 
  read_rds("data/xwalk_ids.rds") %>% 
  clean_names() %>% 
  filter(!is.na(reach_id))
xwalk_ids

## # A tibble: 26,459 x 3
##    station_id hydro_id  reach_id 
##    <chr>      <chr>     <chr>    
##  1 313038     200105272 200105272
##  2 203164     200054446 200054446
##  3 207        200026143 200026143
##  4 209        200211923 200211923
##  5 021        200000410 200000410
##  6 212        200005635 200005635
##  7 133072     200027010 200027010
##  8 213001     200164493 200164493
##  9 213003     200164493 200164493
## 10 213004     200164409 200164409
## # ... with 26,449 more rows

Now we can join our xwalk table to our survey sites table using the SWIMS station ID as our key.

df_surveys_sites_xref <- 
  df_surveys_sites %>% 
  left_join(xwalk_ids, by = c("swims.station.id" = "station_id"))
df_surveys_sites_xref %>% as_tibble()

## # A tibble: 78 x 39
##    county waterbody.name survey.year survey.seq.no   wbic station.name
##    <chr>  <chr>                <int>         <int>  <int> <chr>       
##  1 vernon west_fork_kic~        2000          2222 1.19e6 west fork k~
##  2 vernon west_fork_kic~        2000          2222 1.19e6 west fork k~
##  3 vernon west_fork_kic~        2000          2222 1.19e6 west fork k~
##  4 vernon west_fork_kic~        2000          2216 1.19e6 west fork k~
##  5 vernon west_fork_kic~        2008       5503234 1.19e6 west fork k~
##  6 vernon knapp_creek           2005         91147 1.19e6 knapp creek~
##  7 vernon knapp_creek           2005         91148 1.19e6 knapp creek~
##  8 vernon bishop_br             2011     226999122 1.19e6 bishop bran~
##  9 vernon bishop_br             2016     515082742 1.19e6 bishop bran~
## 10 vernon bishop_br             2019     515090728 1.19e6 bishop bran~
## # ... with 68 more rows, and 33 more variables: site.seq.no <int>,
## #   swims.station.id <chr>, latlong.method <chr>, latlong.datum <chr>,
## #   waterbody.type <chr>, survey.begin.date <date>, survey.end.date <date>,
## #   primary.survey.purpose <chr>, secondary.survey.purpose <chr>,
## #   survey.notes <chr>, survey.status <chr>, special.regs.type <chr>,
## #   macroinvertebrate.sample.id <chr>, data.entry.name <chr>,
## #   data.entry.date <dttm>, last.update.name <chr>, last.update.date <dttm>,
## #   s.effort.start.time.invalid <chr>, s.elec.amps.invalid <chr>,
## #   s.elec.current.missing <chr>, s.elec.dist.invalid <lgl>,
…
